<?xml version="1.0" encoding="UTF-8" standalone="no"?>
<svg
   xmlns:dc="http://purl.org/dc/elements/1.1/"
   xmlns:cc="http://creativecommons.org/ns#"
   xmlns:rdf="http://www.w3.org/1999/02/22-rdf-syntax-ns#"
   xmlns:svg="http://www.w3.org/2000/svg"
   xmlns="http://www.w3.org/2000/svg"
   version="1.0"
   width="48"
   height="48"
   id="svg1872">
  <metadata
     id="metadata1878">
    <rdf:RDF>
      <cc:Work
         rdf:about="">
        <dc:format>image/svg+xml</dc:format>
        <dc:type
           rdf:resource="http://purl.org/dc/dcmitype/StillImage" />
        <dc:title></dc:title>
      </cc:Work>
    </rdf:RDF>
  </metadata>
  <defs
     id="defs1874" />
  <g
     id="layer3" />
  <g
     id="layer2"
     style="display:inline" />
  <g
     id="layer4"
     style="display:none">
    <path
       style="fill:#be7400;fill-opacity:1;stroke:#915600;stroke-width:1px;stroke-linecap:butt;stroke-linejoin:miter;stroke-opacity:1"
       d="m 21.964512,32.00171 c 0.04419,9.678524 -3.0494,10.253049 -3.0494,10.253049 l 11.136932,-0.08839 c 0,0 -2.209708,-1.082757 -2.386485,-10.319339 L 27.585879,15.458219 H 21.01742 c 1.149049,7.601398 0.947092,16.543491 0.947092,16.543491 z"
       id="path3714" />
  </g>
  <g
     id="layer5">
    <rect
       y="35.666424"
       x="1.7002106"
       height="9.8791265"
       width="44.599579"
       id="rect889"
       style="fill:#c37700;fill-opacity:1;stroke:#502d16;stroke-width:1.76098418;stroke-linecap:butt;stroke-linejoin:miter;stroke-miterlimit:4;stroke-dasharray:none;stroke-opacity:1;paint-order:normal" />
    <rect
       ry="0"
       width="10.793601"
       height="25.76766"
       x="18.603197"
       y="15.365306"
       style="display:inline;fill:#784421;fill-opacity:1;stroke:#502d16;stroke-width:1.50951993;stroke-linejoin:miter;stroke-miterlimit:4;stroke-dasharray:none;stroke-opacity:1"
       id="rect1880" />
    <path
       d="M 4.8232398,19.246951 A 17.022298,19.178153 88.742369 0 1 24.079911,2.2913164 17.022298,19.178153 88.742369 0 1 43.176761,19.210946 L 23.999596,19.31471 Z"
       id="path893"
       style="fill:#4e9a06;fill-opacity:1;stroke:#377500;stroke-width:1.5;stroke-linecap:butt;stroke-linejoin:round;stroke-miterlimit:4;stroke-dasharray:none;stroke-opacity:1;paint-order:normal" />
  </g>
  <g
     style="display:none"
     id="layer6">
    <g
       transform="translate(0.02276989)"
       id="g916">
      <path
         style="fill:none;stroke:#666666;stroke-width:4;stroke-linecap:butt;stroke-linejoin:miter;stroke-miterlimit:4;stroke-dasharray:none;stroke-opacity:1"
         d="m 2.5,12.5 v -10 h 10"
         id="path4625" />
      <path
         style="fill:none;stroke:#666666;stroke-width:4;stroke-linecap:butt;stroke-linejoin:miter;stroke-miterlimit:4;stroke-dasharray:none;stroke-opacity:1"
         d="m 35.5,2.5 h 10 v 10"
         id="path4627" />
      <path
         style="fill:none;stroke:#666666;stroke-width:4;stroke-linecap:butt;stroke-linejoin:miter;stroke-miterlimit:4;stroke-dasharray:none;stroke-opacity:1"
         d="m 45.459944,35.552197 -0.0046,9.999999 -9.999999,-0.0046"
         id="path4625-3" />
      <path
         style="fill:none;stroke:#666666;stroke-width:4;stroke-linecap:butt;stroke-linejoin:miter;stroke-miterlimit:4;stroke-dasharray:none;stroke-opacity:1"
         d="m 12.455379,45.537118 -9.999999,-0.0046 0.0046,-9.999999"
         id="path4627-6" />
    </g>
  </g>
</svg>
